…
    ## [1] 0

``` r
# realiza a Principal Components Analysis
res.pca <- prcomp(dados_pca, scale = TRUE) 

res.pca %>% broom::tidy()
```

    ## # A tibble: 288 × 3
    ##    row      PC  value
    ##    <chr> <dbl>  <dbl>
    ##  1 11        1  1.15 
    ##  2 11        2  1.39 
    ##  3 11        3 -1.13 
    ##  4 11        4  0.628
    ##  5 11        5  1.79 
    ##  6 11        6 -0.817
    ##  7 11        7  0.707
    ##  8 11        8 -0.722
    ##  9 11        9 -0.834
    ## 10 11       10  0.235
    ## # … with 278 more rows
…
